%YAML 1.1
%TAG !u! tag:unity3d.com,2011:
--- !u!114 &11400000
MonoBehaviour:
  m_ObjectHideFlags: 0
  m_CorrespondingSourceObject: {fileID: 0}
  m_PrefabInternal: {fileID: 0}
  m_GameObject: {fileID: 0}
  m_Enabled: 1
  m_EditorHideFlags: 0
  m_Script: {fileID: 11500000, guid: e86b1329c4a28404fab98897b7232c32, type: 3}
  m_Name: KillDistance
  m_EditorClassIdentifier: 
  DeveloperDescription: "This will be used to send the \nposition to points of interest.\n"
  Value: {x: 0, y: 0, z: 0}
