%YAML 1.1
%TAG !u! tag:unity3d.com,2011:
--- !u!114 &11400000
MonoBehaviour:
  m_ObjectHideFlags: 0
  m_CorrespondingSourceObject: {fileID: 0}
  m_PrefabInternal: {fileID: 0}
  m_GameObject: {fileID: 0}
  m_Enabled: 1
  m_EditorHideFlags: 0
  m_Script: {fileID: 11500000, guid: 33f607cd32b6a6b44aecd6cd270d0b90, type: 3}
  m_Name: FollowPlayer4
  m_EditorClassIdentifier: 
  time: 4
  isOnTimer: 1
  isTerrified: 0
  safeSpots: {fileID: 11400000, guid: cf6c1b74138705d4786f21de4f1cdb34, type: 2}
  chosenReason: 0
  speedToGetThere: 0
  oneTime: 0
