%YAML 1.1
%TAG !u! tag:unity3d.com,2011:
--- !u!114 &11400000
MonoBehaviour:
  m_ObjectHideFlags: 0
  m_CorrespondingSourceObject: {fileID: 0}
  m_PrefabInternal: {fileID: 0}
  m_GameObject: {fileID: 0}
  m_Enabled: 1
  m_EditorHideFlags: 0
  m_Script: {fileID: 11500000, guid: 606698b53c0b0cf4aa149c0db5c218db, type: 3}
  m_Name: splatterLevel00Set
  m_EditorClassIdentifier: 
  scenes:
  - {fileID: 102900000, guid: 366ae45d87d36a74abf2a1b340427ca9, type: 3}
  - {fileID: 102900000, guid: 760259634a25ea143bb36a0ab09a780e, type: 3}
  scenePaths:
  - Assets/Scenes/SplatterLevel00.unity
  - Assets/Scenes/CoreLogic.unity
  sceneSetType: 1
