%YAML 1.1
%TAG !u! tag:unity3d.com,2011:
--- !u!114 &11400000
MonoBehaviour:
  m_ObjectHideFlags: 0
  m_CorrespondingSourceObject: {fileID: 0}
  m_PrefabInternal: {fileID: 0}
  m_GameObject: {fileID: 0}
  m_Enabled: 1
  m_EditorHideFlags: 0
  m_Script: {fileID: 11500000, guid: 606698b53c0b0cf4aa149c0db5c218db, type: 3}
  m_Name: IsometricSet
  m_EditorClassIdentifier: 
  scenes:
  - {fileID: 102900000, guid: aed84467aa92bc7489747202e064347f, type: 3}
  scenePaths:
  - Assets/Scenes/Prototypes/IsometricCam.unity
  sceneSetType: 1
