%YAML 1.1
%TAG !u! tag:unity3d.com,2011:
--- !u!114 &11400000
MonoBehaviour:
  m_ObjectHideFlags: 0
  m_CorrespondingSourceObject: {fileID: 0}
  m_PrefabInternal: {fileID: 0}
  m_GameObject: {fileID: 0}
  m_Enabled: 1
  m_EditorHideFlags: 0
  m_Script: {fileID: 11500000, guid: 5159d91f79d53924a8fb55f15a9401ab, type: 3}
  m_Name: DefaultResponse
  m_EditorClassIdentifier: 
  waitTimeBeforeLook: 1
  lookAngles:
  - -60
  - 60
  - 0
  timeToLookAtAngle:
  - 1
  - 1
  - 1
  waitTimesBeforeNextLookAngle:
  - 0.5
  - 0.5
  - 0.5
